…
    ## The following objects are masked from 'package:base':
    ## 
    ##     intersect, setdiff, setequal, union

``` r
library(babynames)

library(babynames)
 babynames_riley_casey_1960_later <- babynames %>%
   filter(name %in% c("Riley", "Casey"), year >= 1960)
   babynames_riley_casey_1960_later
```

    ## # A tibble: 221 × 5
    ##     year sex   name      n      prop
    ##    <dbl> <chr> <chr> <int>     <dbl>
    ##  1  1960 F     Casey    76 0.0000365
    ##  2  1960 M     Casey   348 0.000161 
    ##  3  1960 M     Riley   108 0.0000499
    ##  4  1961 F     Casey    60 0.0000289
    ##  5  1961 M     Casey   359 0.000167 
    ##  6  1961 M     Riley   102 0.0000473
    ##  7  1962 F     Casey    79 0.0000390
    ##  8  1962 M     Casey   517 0.000246 
    ##  9  1962 M     Riley   112 0.0000533
    ## 10  1963 F     Casey    65 0.0000327
    ## # … with 211 more rows
…
